Explore the 2021 Canadian Federal Election
…
simulated_data

# A tibble: 338 × 2
   Riding Party         
    <int> <chr>         
 1      1 New Democratic
 2      2 Other         
 3      3 Bloc Québécois
 4      4 Other         
 5      5 Liberal       
 6      6 Liberal       
 7      7 Other         
 8      8 Green         
 9      9 Green         
10     10 New Democratic
# ℹ 328 more rows
…
